     tiempo                   tempAm     tempCafe    ph     humedad 
2020-10-20 08:28:04.394413   20.00000   20.06000   5.580000   93.00000   
2020-10-20 08:38:09.039489   21.00000   20.25000   5.570000   94.00000   
2020-10-20 08:48:09.112264   21.00000   20.50000   5.570000   94.00000   
2020-10-20 08:58:09.159704   21.00000   20.81000   5.550000   94.00000   
2020-10-20 09:08:09.179435   21.00000   20.69000   5.550000   94.00000   
2020-10-20 09:18:09.268166   21.00000   20.75000   5.530000   94.00000   
2020-10-20 09:28:09.417365   22.00000   20.94000   5.510000   95.00000   
2020-10-20 09:38:09.629701   22.00000   21.19000   5.500000   95.00000   
2020-10-20 09:48:09.714350   22.00000   23.00000   5.320000   95.00000   
2020-10-20 09:58:11.427217   22.00000   27.56000   5.170000   95.00000   
2020-10-20 10:08:11.379063   22.00000   22.50000   5.420000   95.00000   
2020-10-20 10:18:11.549734   22.00000   22.56000   5.380000   95.00000   
2020-10-20 10:28:11.690225   22.00000   21.69000   5.450000   95.00000   
2020-10-20 10:38:11.906183   22.00000   22.13000   5.420000   95.00000   
2020-10-20 10:48:12.142092   23.00000   22.06000   5.400000   93.00000   
2020-10-20 10:58:12.109761   23.00000   22.75000   5.370000   93.00000   
2020-10-20 11:08:12.227353   24.00000   23.00000   5.340000   92.00000   
2020-10-20 11:18:12.688666   25.00000   22.94000   5.300000   86.00000   
2020-10-20 11:28:12.867355   25.00000   23.31000   5.280000   85.00000   
2020-10-20 11:38:12.974741   25.00000   24.25000   5.250000   83.00000   
2020-10-20 11:48:13.170334   25.00000   24.56000   5.220000   85.00000   
2020-10-20 11:58:13.241514   26.00000   24.50000   5.180000   84.00000   
2020-10-20 12:08:13.437123   26.00000   24.69000   5.160000   83.00000   
2020-10-20 12:18:13.563429   27.00000   24.81000   5.120000   84.00000   
2020-10-20 12:28:13.589029   27.00000   25.38000   5.080000   82.00000   
