            
while(True):
    if(serialport.in_waiting > 0):
        now = datetime.now()
        d = serialport.read(1)
        datos = datos + str(d)
        
        if('a' in str(d)):
            datos = limpiarChar(datos,"b'\\nra")
            temC = datos.split(',')[0]
            temA = datos.split(',')[1]
            h = datos.split(',')[2]
            p = datos.split(',')[3]
            
            tempCafe.extend([temC])
            tempAmbiente.extend([temA])
            humedad.extend([h])
            ph.extend([ph])
    
            print(datos.split(','))
            print(now)
            datos = ''


ph   =   3.26  //  buffer 4 8:40 a. m. 1/10/2020

