     tiempo                   tempAm     tempCafe    ph     humedad 
2020-10-17 17:00:56.785729   25.00000   24.00000   5.030000   58.00000   
2020-10-17 17:10:56.856513   25.00000   24.00000   5.260000   73.00000   
2020-10-17 17:20:56.903548   25.00000   24.19000   4.760000   74.00000   
2020-10-17 17:30:56.999583   25.00000   24.19000   4.910000   68.00000   
2020-10-17 17:40:57.000445   25.00000   24.13000   5.170000   74.00000   
2020-10-17 17:50:57.136693   24.00000   24.25000   5.270000   74.00000   
2020-10-17 18:00:57.261447   24.00000   24.25000   5.350000   72.00000   
2020-10-17 18:10:57.388244   24.00000   24.25000   5.460000   69.00000   
2020-10-17 18:20:57.604569   24.00000   24.19000   5.500000   71.00000   
2020-10-17 18:30:57.768333   24.00000   24.13000   5.570000   77.00000   
2020-10-17 18:40:57.796064   23.00000   23.94000   5.610000   74.00000   
2020-10-17 18:50:57.888612   23.00000   23.94000   5.670000   78.00000   
2020-10-17 19:00:57.949393   23.00000   23.75000   5.600000   78.00000   
2020-10-17 19:10:58.326205   23.00000   23.88000   5.680000   81.00000   
2020-10-17 19:20:58.339651   23.00000   23.69000   5.710000   76.00000   
2020-10-17 19:30:58.541058   23.00000   23.63000   5.750000   79.00000   
2020-10-17 19:40:58.602165   23.00000   23.63000   5.750000   79.00000   
2020-10-17 19:50:58.792738   23.00000   23.50000   5.620000   82.00000   
2020-10-17 20:00:58.806626   23.00000   23.50000   5.620000   83.00000   
2020-10-17 20:10:58.889096   23.00000   23.44000   5.620000   78.00000   
2020-10-17 20:20:59.121024   23.00000   23.25000   5.520000   79.00000   
2020-10-17 20:30:59.260013   23.00000   23.38000   5.510000   84.00000   
2020-10-17 20:40:59.386983   23.00000   23.25000   5.460000   82.00000   
2020-10-17 20:50:59.604057   23.00000   23.19000   5.460000   84.00000   
2020-10-17 21:00:59.612360   22.00000   23.00000   5.300000   84.00000   
2020-10-17 21:10:59.779803   22.00000   23.06000   5.320000   85.00000   
2020-10-17 21:20:59.840629   22.00000   23.06000   5.320000   83.00000   
2020-10-17 21:30:59.911892   23.00000   23.00000   5.360000   85.00000   
2020-10-17 21:40:59.922862   23.00000   22.88000   5.400000   83.00000   
2020-10-17 21:51:00.029620   22.00000   22.81000   5.410000   79.00000   
2020-10-17 22:01:00.182057   23.00000   22.69000   5.450000   84.00000   
2020-10-17 22:11:00.380355   22.00000   22.69000   5.420000   81.00000   
2020-10-17 22:21:00.433326   22.00000   22.75000   5.420000   85.00000   
2020-10-17 22:31:00.594545   22.00000   22.63000   5.440000   83.00000   
2020-10-17 22:41:00.936400   22.00000   22.50000   5.650000   84.00000   
2020-10-17 22:51:01.164998   22.00000   22.63000   5.630000   84.00000   
2020-10-17 23:10:04.405721   22.00000   22.56000   5.610000   87.00000   
2020-10-17 23:20:04.601598   22.00000   22.44000   5.630000   87.00000   
2020-10-17 23:30:04.709241   22.00000   22.38000   5.620000   83.00000   
2020-10-17 23:40:05.113705   22.00000   22.38000   5.610000   84.00000   
2020-10-17 23:50:05.314592   22.00000   22.25000   5.600000   88.00000   
2020-10-18 00:00:05.546633   22.00000   22.38000   5.480000   84.00000   
2020-10-18 00:10:05.745745   22.00000   22.25000   5.560000   86.00000   
2020-10-18 00:20:05.925391   22.00000   22.19000   5.560000   87.00000   
2020-10-18 00:30:06.200453   22.00000   22.06000   5.570000   87.00000   
2020-10-18 00:40:06.307640   22.00000   22.13000   5.540000   85.00000   
2020-10-18 00:50:06.360865   21.00000   22.00000   5.580000   86.00000   
2020-10-18 01:00:06.499749   21.00000   21.94000   5.520000   83.00000   
2020-10-18 01:10:06.717274   21.00000   22.00000   5.580000   87.00000   
2020-10-18 01:20:06.758766   21.00000   21.94000   5.580000   86.00000   
2020-10-18 01:30:06.955739   21.00000   21.88000   5.570000   89.00000   
2020-10-18 01:40:07.106068   21.00000   21.69000   5.570000   84.00000   
2020-10-18 01:50:07.288153   21.00000   21.75000   5.560000   87.00000   
2020-10-18 02:00:07.422951   21.00000   21.69000   5.550000   89.00000   
2020-10-18 02:10:07.603206   21.00000   21.50000   5.570000   91.00000   
2020-10-18 02:20:07.613194   21.00000   21.56000   5.560000   88.00000   
2020-10-18 02:30:07.763833   20.00000   21.50000   5.550000   91.00000   
2020-10-18 02:40:07.902919   20.00000   21.38000   5.520000   88.00000   
2020-10-18 02:50:07.928368   20.00000   21.19000   5.370000   90.00000   
2020-10-18 03:00:07.989313   20.00000   21.25000   5.510000   90.00000   
2020-10-18 03:10:08.173139   20.00000   21.25000   5.490000   92.00000   
2020-10-18 03:20:08.265568   20.00000   21.13000   5.490000   92.00000   
2020-10-18 03:30:08.372840   19.00000   21.00000   5.470000   91.00000   
2020-10-18 03:40:08.605427   19.00000   20.94000   5.420000   87.00000   
2020-10-18 03:50:08.994518   19.00000   20.88000   5.340000   92.00000   
2020-10-18 06:52:40.512740   19.00000   19.25000   4.520000   93.00000   
