     tiempo                   tempAm     tempCafe    ph     humedad 
2020-10-21 19:58:04.440761   21.00000   22.69000   5.300000   94.00000   
2020-10-21 20:08:04.482704   21.00000   22.25000   5.200000   94.00000   
2020-10-21 20:18:04.688797   21.00000   22.38000   5.150000   94.00000   
2020-10-21 20:28:04.745496   21.00000   21.88000   5.120000   94.00000   
2020-10-21 20:38:05.137276   21.00000   21.56000   5.110000   94.00000   
2020-10-21 20:48:05.339584   21.00000   21.63000   5.100000   94.00000   
2020-10-21 20:58:05.722796   21.00000   21.38000   5.090000   94.00000   
2020-10-21 21:08:05.752018   21.00000   21.19000   5.070000   94.00000   
2020-10-21 21:18:05.890838   21.00000   21.00000   5.070000   94.00000   
2020-10-21 21:28:06.044785   20.00000   20.75000   5.070000   93.00000   
2020-10-21 21:38:06.186614   20.00000   21.25000   5.070000   93.00000   
2020-10-21 21:48:06.387431   20.00000   21.13000   5.070000   93.00000   
2020-10-21 21:58:06.450144   20.00000   21.06000   5.060000   93.00000   
2020-10-21 22:08:06.466507   20.00000   21.06000   5.070000   93.00000   
2020-10-21 22:18:06.573083   20.00000   20.81000   5.070000   93.00000   
2020-10-21 22:28:06.775888   20.00000   20.63000   5.070000   93.00000   
2020-10-21 22:38:06.783228   20.00000   21.00000   5.030000   93.00000   
2020-10-21 22:48:07.050009   20.00000   21.06000   4.960000   93.00000   
2020-10-21 22:58:06.987246   20.00000   20.38000   4.970000   93.00000   
2020-10-21 23:08:07.079085   20.00000   19.75000   4.990000   93.00000   
2020-10-21 23:18:07.152208   20.00000   19.69000   5.110000   93.00000   
2020-10-21 23:28:07.499610   19.00000   19.81000   5.140000   93.00000   
2020-10-21 23:38:07.609190   19.00000   19.56000   5.150000   93.00000   
2020-10-21 23:48:07.677943   19.00000   19.44000   5.160000   93.00000   
2020-10-21 23:58:07.982020   19.00000   19.50000   5.160000   93.00000   
2020-10-22 00:08:08.200469   19.00000   19.44000   5.180000   93.00000   
2020-10-22 00:18:08.323160   19.00000   19.25000   5.190000   93.00000   
2020-10-22 00:28:08.370757   19.00000   19.06000   5.200000   93.00000   
2020-10-22 00:38:08.558457   19.00000   21.81000   5.200000   93.00000   
2020-10-22 00:48:08.725537   19.00000   18.81000   5.210000   93.00000   
2020-10-22 00:58:09.098178   19.00000   18.75000   5.220000   93.00000   
2020-10-22 01:08:09.112144   19.00000   18.63000   5.230000   93.00000   
2020-10-22 01:18:09.407675   18.00000   18.38000   5.240000   93.00000   
2020-10-22 01:28:09.484516   18.00000   18.19000   5.240000   93.00000   
2020-10-22 01:38:09.750310   18.00000   18.19000   5.250000   93.00000   
2020-10-22 01:48:09.919919   18.00000   18.13000   5.260000   93.00000   
2020-10-22 01:58:09.948893   18.00000   18.13000   5.270000   93.00000   
2020-10-22 02:08:10.040497   18.00000   17.88000   5.280000   93.00000   
2020-10-22 02:18:10.133461   18.00000   17.88000   5.280000   93.00000   
2020-10-22 02:28:10.349930   18.00000   17.75000   5.290000   93.00000   
2020-10-22 02:38:10.647972   18.00000   17.81000   5.300000   93.00000   
2020-10-22 02:48:10.864399   18.00000   17.81000   5.310000   93.00000   
2020-10-22 02:58:11.095954   18.00000   17.94000   5.300000   93.00000   
2020-10-22 03:08:11.143301   18.00000   17.75000   5.330000   93.00000   
2020-10-22 03:18:11.297781   18.00000   17.81000   5.330000   93.00000   
2020-10-22 03:28:11.359004   18.00000   17.94000   5.330000   93.00000   
2020-10-22 03:38:11.892359   18.00000   17.94000   5.340000   93.00000   
2020-10-22 03:48:11.983825   18.00000   17.69000   5.340000   93.00000   
2020-10-22 03:58:12.125662   18.00000   17.50000   5.340000   93.00000   
2020-10-22 04:08:12.172144   18.00000   17.56000   5.360000   93.00000   
2020-10-22 04:18:12.304847   18.00000   17.56000   5.350000   93.00000   
2020-10-22 04:28:12.436083   18.00000   17.56000   5.350000   93.00000   
2020-10-22 04:38:12.632278   18.00000   17.50000   5.340000   93.00000   
2020-10-22 04:48:12.770105   18.00000   17.44000   5.340000   93.00000   
2020-10-22 04:58:12.810082   18.00000   17.38000   5.340000   93.00000   
2020-10-22 05:08:12.902015   18.00000   17.44000   5.350000   93.00000   
2020-10-22 05:18:13.196041   17.00000   17.44000   5.340000   92.00000   
2020-10-22 05:28:13.424581   17.00000   17.25000   5.330000   92.00000   
2020-10-22 05:38:13.645002   17.00000   17.13000   5.330000   92.00000   
2020-10-22 05:48:13.859436   17.00000   17.13000   5.320000   92.00000   
2020-10-22 05:58:14.059744   17.00000   16.94000   5.310000   92.00000   
2020-10-22 06:08:14.183638   17.00000   17.06000   5.310000   92.00000   
2020-10-22 06:18:14.362165   17.00000   17.00000   5.310000   92.00000   
2020-10-22 06:28:14.722689   17.00000   17.31000   5.300000   92.00000   
2020-10-22 06:38:15.019223   18.00000   17.50000   5.280000   93.00000   
2020-10-22 06:48:15.158543   18.00000   17.69000   5.280000   93.00000   
2020-10-22 06:58:15.361841   18.00000   17.69000   5.260000   93.00000   
2020-10-22 07:08:15.328778   18.00000   18.13000   5.260000   93.00000   
2020-10-22 07:18:15.454978   19.00000   18.50000   5.250000   93.00000   
2020-10-22 07:28:15.960413   19.00000   18.88000   5.230000   93.00000   
2020-10-22 07:38:16.070865   19.00000   19.31000   5.210000   93.00000   
2020-10-22 07:48:16.232354   20.00000   19.75000   5.200000   93.00000   
2020-10-22 07:58:16.291655   20.00000   20.13000   5.180000   93.00000   
2020-10-22 08:08:16.363610   20.00000   20.50000   5.170000   93.00000   
2020-10-22 08:18:16.402096   21.00000   20.94000   5.160000   94.00000   
2020-10-22 08:28:16.620209   21.00000   21.44000   5.140000   94.00000   
2020-10-22 08:38:16.653223   22.00000   21.88000   5.120000   95.00000   
2020-10-22 08:48:16.746302   22.00000   22.19000   5.110000   95.00000   
2020-10-22 08:58:17.101006   22.00000   22.38000   5.090000   94.00000   
2020-10-22 09:08:17.332297   22.00000   22.44000   5.080000   95.00000   
2020-10-22 09:18:17.336023   22.00000   22.31000   5.060000   95.00000   
2020-10-22 09:28:17.643564   22.00000   22.13000   5.050000   95.00000   
2020-10-22 09:38:17.877645   22.00000   22.44000   5.030000   95.00000   
2020-10-22 09:48:18.017836   23.00000   23.00000   5.010000   94.00000   
2020-10-22 09:58:18.209252   24.00000   23.88000   4.990000   90.00000   
2020-10-22 10:08:18.467943   24.00000   24.56000   4.980000   87.00000   
2020-10-22 10:18:18.699534   25.00000   25.25000   4.950000   86.00000   
2020-10-22 10:28:18.741886   25.00000   25.75000   4.930000   83.00000   
2020-10-22 10:38:19.147029   25.00000   26.13000   4.910000   86.00000   
2020-10-22 10:48:19.355849   25.00000   25.88000   4.890000   84.00000   
2020-10-22 10:58:19.561360   24.00000   25.38000   4.870000   88.00000   
2020-10-22 11:08:19.569757   24.00000   24.75000   4.870000   90.00000   
2020-10-22 11:18:19.964521   24.00000   24.56000   4.850000   91.00000   
2020-10-22 11:28:20.552826   24.00000   24.38000   4.820000   94.00000   
2020-10-22 11:38:20.702680   24.00000   24.19000   4.810000   94.00000   
2020-10-22 11:48:20.758344   24.00000   24.38000   4.780000   90.00000   
2020-10-22 11:58:20.876840   25.00000   24.88000   4.710000   90.00000   
2020-10-22 12:08:20.897249   25.00000   25.00000   4.700000   91.00000   
2020-10-22 12:18:20.944833   24.00000   24.63000   4.670000   91.00000   
2020-10-22 12:28:20.999271   23.00000   23.81000   4.650000   95.00000   
2020-10-22 12:38:21.134590   23.00000   23.38000   4.650000   95.00000   
2020-10-22 12:48:21.147043   23.00000   23.38000   4.620000   95.00000   
2020-10-22 12:58:21.224788   24.00000   23.69000   4.620000   95.00000   
2020-10-22 13:08:21.265114   24.00000   23.81000   4.610000   95.00000   
2020-10-22 13:18:21.345782   25.00000   24.31000   4.580000   94.00000   
2020-10-22 13:28:21.365185   24.00000   24.13000   4.560000   95.00000   
2020-10-22 13:38:21.479515   24.00000   23.75000   4.530000   95.00000   
2020-10-22 13:48:21.651934   24.00000   23.56000   4.520000   95.00000   
2020-10-22 13:58:21.786837   23.00000   23.44000   4.490000   95.00000   
2020-10-22 14:08:21.913023   23.00000   23.13000   4.500000   95.00000   
2020-10-22 14:18:22.053402   23.00000   22.88000   4.470000   95.00000   
2020-10-22 14:28:22.327614   23.00000   22.56000   4.440000   95.00000   
2020-10-22 14:38:22.523161   22.00000   22.38000   4.430000   95.00000   
2020-10-22 14:48:22.702920   22.00000   22.06000   4.420000   95.00000   
2020-10-22 14:58:22.760104   22.00000   22.00000   4.400000   95.00000   
2020-10-22 15:08:22.831951   22.00000   22.06000   4.410000   95.00000   
2020-10-22 15:18:22.934231   22.00000   22.00000   4.390000   95.00000   
2020-10-22 15:28:23.107529   22.00000   21.88000   4.330000   95.00000   
2020-10-22 15:38:23.305835   22.00000   22.19000   4.340000   95.00000   
2020-10-22 15:48:23.393746   23.00000   22.25000   4.320000   95.00000   
2020-10-22 15:58:23.526370   23.00000   22.19000   4.320000   95.00000   
